0000000000239480 B __bss_start
                 U calloc
00000000000064b3 T copyDataToDevice
00000000000065f4 T copyDataToDeviceAd
0000000000006739 T copyDataToHost
0000000000006796 T copyDataToHostAd
0000000000006876 T copy_f_hat_ToHost
00000000000067ef T copy_f_ToHost
0000000000006834 T copy_g_ToHost
00000000000068b7 T copy_x_toHost
                 U cuCtxCreate_v2
                 U cuCtxDetach
                 U cudaBindTexture
                 U cudaConfigureCall
                 U cudaCreateChannelDesc
                 U cudaDeviceReset
                 U cudaDeviceSetCacheConfig
                 U cudaEventCreate
                 U cudaEventDestroy
                 U cudaEventElapsedTime
                 U cudaEventRecord
                 U cudaEventSynchronize
                 U cudaFree
                 U cudaFreeHost
                 U __cudaInitModule
                 U cudaLaunch
                 U cudaMalloc
                 U cudaMallocHost
                 U cudaMemcpy
                 U cudaMemcpyToSymbol
                 U cudaMemset
                 U __cudaRegisterFatBinary
                 U __cudaRegisterFunction
                 U __cudaRegisterTexture
                 U __cudaRegisterVar
                 U cudaSetupArgument
                 U cudaThreadSynchronize
                 U cudaUnbindTexture
                 U __cudaUnregisterFatBinary
                 U cuDeviceGet
                 U cuDeviceGetCount
                 U cufftCreate
                 U cufftDestroy
                 U cufftExecC2C
                 U cufftPlan1d
                 U cufftPlan2d
                 U cufftPlan3d
                 U cuInit
                 U cuMemGetInfo_v2
00000000000075b7 T cundft_adjoint
0000000000007592 T cundft_transform
00000000000069a7 T cunfft_adjoint
0000000000007468 T cunfft_finalize
0000000000007411 T cunfft_finalizeDevice
0000000000006a76 T cunfft_freePlan
0000000000006d97 T cunfft_init
0000000000006ba0 T cunfft_initDevicePara
0000000000006eba T cunfft_initGuru
0000000000006fd3 T cunfft_initHelp
0000000000006a4b T cunfft_initPlan
0000000000006a91 T cunfft_reinit
0000000000006b1b T cunfft_reinitAd
0000000000006903 T cunfft_transform
                 U __cxa_atexit
                 w __cxa_finalize
00000000002394c0 B d_dCData
                 U drand48
0000000000239480 D _edata
0000000000239800 B _end
                 U exit
                 U exp
000000000000a7ac T _fini
                 U __fprintf_chk
                 U free
0000000000004810 T getGPUMemProps_ToStdout
                 w __gmon_start__
0000000000003ce8 T _init
                 w _ITM_deregisterTMCloneTable
                 w _ITM_registerTMCloneTable
                 U log
00000000000045e0 T main
                 U malloc
                 U memset
00000000000061ce T nfft_init_fg_exp_l
                 U pow
                 U printf
                 U __printf_chk
                 U putchar
                 U puts
000000000000753a T resetCUNFFTTimes
00000000000075dc T resetDevice
00000000000062bd T setProperties
                 U sin
                 U sqrt
                 U sqrtf
                 U __stack_chk_fail
0000000000006449 T warmUp_createPlan
0000000000004a60 T _Z10config_outPKc4dim3S1_i
00000000000053b0 T _Z10printStatsmm
0000000000007748 T _Z12NDFT_forElemiPfP6float2iPiPdS3_i
0000000000009c32 T _Z13cuConvolutionP11cunfft_plan
000000000000a2d2 T _Z13cuFFT_adjointP6float2i
00000000000088e5 T _Z13kernelNDFT_1dPfP6float2S1_ii
0000000000008a08 T _Z13kernelNDFT_2dPfP6float2S1_ii
0000000000008b2b T _Z13kernelNDFT_3dPfP6float2S1_ii
0000000000005320 T _Z13showCPUMemUseP11cunfft_plan
00000000000076bb T _Z14copyPropertiesP5kdata
000000000000a4f0 T _Z14cuNDFT_adjointP11cunfft_plan
0000000000007723 T _Z14getPSI_factorsPddi
0000000000004aa0 T _Z14setExampleDataP11cunfft_planP6float2Pf
0000000000007bc4 T _Z15kernelRollOf_1dPK6float2PS_ii
0000000000007df4 T _Z15kernelRollOf_2dPK6float2PS_iiii
00000000000080ef T _Z15kernelRollOf_3dPK6float2PS_iiiiii
00000000000057e0 T _Z15next_power_of_2i
000000000000a1da T _Z16cuFFT_createPlaniPiS_
0000000000007a90 T _Z16freeTextureFetchv
00000000000054d0 T _Z16printStatsToFilemmP8_IO_FILEi
0000000000005570 T _Z16showCoeff_doublePKfiPKc
000000000000a16c T _Z17cuFFT_DestroyPlanP11cunfft_plan
00000000000046f0 T _Z18getMemRestrictionsmi
0000000000004f50 T _Z19getExampleData_nullP11cunfft_plan
0000000000004970 T _Z19showCoeff_cuComplexPK6float2iPKc
0000000000004790 T _Z19showMemRestrictionsm
0000000000007777 T _Z20NDFT_adjoint_forElemiPfP6float2iPii
00000000000052e0 T _Z21compute_error_l_inftyP6float2S0_i
0000000000009eb4 T _Z21cuConvolution_adjointP11cunfft_plan
0000000000009547 W _Z21cudaCreateChannelDescI6float2E21cudaChannelFormatDescv
0000000000008c4e T _Z21kernelNDFT_adjoint_1dPfP6float2S1_ii
0000000000008d71 T _Z21kernelNDFT_adjoint_2dPfP6float2S1_ii
0000000000008e94 T _Z21kernelNDFT_adjoint_3dPfP6float2S1_ii
0000000000005910 T _Z21simple_test_cunfft_1dv
0000000000005d70 T _Z21simple_test_cunfft_2dv
00000000000079e1 T _Z22allocateTexture1DFetchP6float2i
000000000000837b T _Z22kernelConvWithGauss_1dPKfP6float2i
000000000000855d T _Z22kernelConvWithGauss_2dPKfP6float2i
000000000000870a T _Z22kernelConvWithGauss_3dPKfP6float2ii
0000000000004ef0 T _Z23createFourierCoeff_nullP6float2i
0000000000004e30 T _Z23getExampleData_uniDistrP11cunfft_plan
0000000000007cb0 T _Z23kernelRollOf_adjoint_1dPK6float2PS_ii
0000000000007f4d T _Z23kernelRollOf_adjoint_2dPK6float2PS_iiii
0000000000008298 T _Z23kernelRollOf_adjoint_3dPK6float2PS_iiiiii
0000000000004d30 T _Z24getExampleData_clusteredP11cunfft_plan
0000000000009677 T _Z25cuKernelRolloffCorrectionP11cunfft_plan
0000000000004e90 T _Z25getExampleDataAd_uniDistrP11cunfft_plan
0000000000004dd0 T _Z27createFourierCoeff_uniDistrP6float2i
0000000000004c50 T _Z28createFourierCoeff_clusteredP6float2i
00000000000078ec T _Z30getComputationGridParams_ArrayP4dim3S0_i
0000000000008494 T _Z30kernelConvWithGauss_adjoint_1dP6float2PfPKS_i
0000000000008621 T _Z30kernelConvWithGauss_adjoint_2dP6float2Pfi
00000000000087d1 T _Z30kernelConvWithGauss_adjoint_3dP6float2Pfi
00000000000077a6 T _Z31getComputationGridParams_MatrixP4dim3S0_ii
0000000000009955 T _Z33cuKernelRollOffCorrection_adjointP11cunfft_plan
00000000000087fd T _Z46__device_stub__Z13kernelNDFT_1dPfP6float2S1_iiPfP6float2S1_ii
0000000000008920 T _Z46__device_stub__Z13kernelNDFT_2dPfP6float2S1_iiPfP6float2S1_ii
0000000000008a43 T _Z46__device_stub__Z13kernelNDFT_3dPfP6float2S1_iiPfP6float2S1_ii
0000000000007b07 T _Z47__device_stub__Z15kernelRollOf_1dPK6float2PS_iiPK6float2PS_ii
0000000000007cdf T _Z49__device_stub__Z15kernelRollOf_2dPK6float2PS_iiiiPK6float2PS_iiii
0000000000007f91 T _Z51__device_stub__Z15kernelRollOf_3dPK6float2PS_iiiiiiPK6float2PS_iiiiii
00000000000082e3 T _Z52__device_stub__Z22kernelConvWithGauss_1dPKfP6float2iPKfP6float2i
00000000000084c5 T _Z52__device_stub__Z22kernelConvWithGauss_2dPKfP6float2iPKfP6float2i
000000000000864d T _Z53__device_stub__Z22kernelConvWithGauss_3dPKfP6float2iiPKfP6float2ii
0000000000008b66 T _Z54__device_stub__Z21kernelNDFT_adjoint_1dPfP6float2S1_iiPfP6float2S1_ii
0000000000008c89 T _Z54__device_stub__Z21kernelNDFT_adjoint_2dPfP6float2S1_iiPfP6float2S1_ii
0000000000008dac T _Z54__device_stub__Z21kernelNDFT_adjoint_3dPfP6float2S1_iiPfP6float2S1_ii
0000000000007bf3 T _Z55__device_stub__Z23kernelRollOf_adjoint_1dPK6float2PS_iiPK6float2PS_ii
0000000000007e38 T _Z57__device_stub__Z23kernelRollOf_adjoint_2dPK6float2PS_iiiiPK6float2PS_iiii
000000000000813a T _Z59__device_stub__Z23kernelRollOf_adjoint_3dPK6float2PS_iiiiiiPK6float2PS_iiiiii
0000000000008589 T _Z59__device_stub__Z30kernelConvWithGauss_adjoint_2dP6float2PfiP6float2Pfi
0000000000008739 T _Z59__device_stub__Z30kernelConvWithGauss_adjoint_3dP6float2PfiP6float2Pfi
000000000000a286 T _Z5cuFFTP6float2i
00000000000083a7 T _Z63__device_stub__Z30kernelConvWithGauss_adjoint_1dP6float2PfPKS_iP6float2PfPKS_i
000000000000a31e T _Z6cuNDFTP11cunfft_plan
0000000000004fb0 T _Z7l_inftyP6float2S0_i
0000000000005650 T _Z8prod_intPii
00000000000076ed T _Z9setPREexpPdi
0000000000005370 T _Z9showTimesP12NFFTTimeSpeci
00000000000095a6 W _ZN16textureReferenceC1Ev
00000000000095a6 W _ZN16textureReferenceC2Ev
0000000000009516 W _ZN4dim3C1Ejjj
0000000000009516 W _ZN4dim3C2Ejjj
00000000000095b2 W _ZN7textureI6float2Li1EL19cudaTextureReadMode0EEC1Ei21cudaTextureFilterMode22cudaTextureAddressMode
00000000000095b2 W _ZN7textureI6float2Li1EL19cudaTextureReadMode0EEC2Ei21cudaTextureFilterMode22cudaTextureAddressMode
